401;"Оказана помощь, больной оставлен на месте"
402;Доставлен в травмпункт
403;Доставлен в больницу
404;Передан специализированной бригаде СМП
405;Смерть в присутствии бригады СМП
406;Смерть в автомобиле СМП
407;Больной не найден на месте
408;Отказ от помощи
409;Адрес не найден
410;Ложный вызов
411;Смерть до приезда бригады СМП
412;Больной увезён до прибытия СМП
413;Больной обслужен врачом поликлиники до приб. СМП
414;Вызов отменён
415;Пациент практически здоров
416;Дежурство
417;Отказ от транспортировки для госпитализации в стационар
