﻿1;ООИ
2;Брюшной тиф и паратиф., сальмонелез
3;Кишечные инфекции
4;Другие пищевые отравления
5;Детские инфекции
6;Дифтерия 
7;Менингококовая инфекция
8;Туберкулез разл.локализации
9;Вирусный гепатит
10;Малярия
11;Спид, сифилис и др. вен.заболеван.
12;Прочие инфекции и др. паразит.бол.
13;Новообразования
14;Бол.крови и кроветв.органов
15;Сахарный диабет без декомпенсации
16;Гипергликемия, кома, кетоацидоз
17;Гипогликемия, кома
18;Бол. др. эндокр.желез, наруш. обмена в-в
19;Острое психическое расстройство
20;Инволюционные психозы
21;Инволюционные психозы с критериями ст.29
22;Беспомощное состояние
23;Алкогольный психоз
24;Алкогольный психоз ст. 29
25;Р-ва вызванные употр. алкоголя, абстиненц
26;Хр. алкоголизм. Госпитализация
27;О.алког. энцефалопатия Гейне-Вернике
28;О.алког. психоз впервые выявленный ст. 29
29;Наркомания и токсикомания 
30;Наркомания и токсикомания  ст.29
31;Впервые выявлен. наркомания, токсикомания
32;Неврозы, психопатия
33;Неврозы и психопатия  ст.29 
34;Орган. забол. ЦНС с псих. расстройствами
35;Острые психические расстройства при ЧС
36;Острый соматогенный психоз
37;Эпилепсия  ст.29
38;Шизофрения  ст.29
39;МДП  ст. 29
40;Психическое забол. впервые выявленное
41;Психическое заболевание вне обострения
42;Психиатрический диагноз не установлен
43;Прочие психические расстройства
44;Воспалительные заболевания ЦНС
45;Эпилепсия
46;Другие болезни ЦНС и головного мозга
47;Нейроциркуляторная дистония
48;Болезни периферической нервной системы
49;БОЛЕЗНИ ГЛАЗА И ЕГО  ПРИДАТКОВ
50;Воспалительные заболевания глаз
51;Острый приступ глаукомы
52;Болезни уха и носа
53;Носовые кровотечения спонтанные
54;Ревматизм в активной фазе
55;Хронические ревматические болезни сердца
56;Артериальная гипертония без осложнений
57;Гипертонический криз не осложненный 
58;Гипертонический криз осложненный
59;Стенокардия стабильная
60;Ст. прогрессирующая, впервые возникшая
61;ОКС без подъема сегмента ST
62;Вариантная стенокардия
63;ОКС с подъемом сегмента ST
64;ИМ в острой стадии неосложненный
65;ИМ в острой стадии осложненный
66;ИМ в переходных стадиях  не осложненный 
67;ИМ в переходных стадиях  осложненный
68;Повт. ИМ в острой стадии не осложненный
69;Повт. ИМ в остр. стадии осложненный
70;Повт. ИМ в переходных стадиях осложненный
71;Повт. ИМ в переходн. стадии не осложненный
72;Др. формы ИБС
73;Хр. сердечная недостаточность
74;Хр. сердечная недостаточность с декомпен.
75;Острые нарушения легочного кровообращения
76;Внезапная коронарная  смерть 
77;Мерцательная аритмия, постоянная форма
78;Мерцательная аритмия, пароксизм. форма
79;Пароксизмальная наджелудочковая тахикардия
80;Пароксизмальная желудочковая тахикардия
81;Экстрасистолия высоких градаций  по Лауну
82;Нарушения проводимости с брадиаритмией
83;Другие нарушения ритма, проводимости
84;Расслаивающая аневризма аорты
85;О. воспал. заболевания сердца и перикарда
86;Кардиалгия неясного генеза
87;Другие болезни сердца 
88;Субарахн. кровоизлияние нетравматическое
89;Геморрагический инсульт
90;Ишемический инсульт
91;Транзиторная (преходящая) ишемия  мозга
92;ОНМК (недифференцированное)
93;Внутричерепные гематомы нетравматические
94;Синдром позвоночной артерии
95;Дисцирк. энцефалопатия, в т.ч. после ОНМК
96;Болезни артерий
97;Болезни вен
98;Гипотония
99;Острые респираторные инфекции
100;Ангина
101;Острый ларингит и трахеит
102;Другие болезни ВДП
103;Пневмония острая
104;Грипп
105;Хр. обструкция легких и дыхат. путей
106;Бронхиальная астма
107;Астматический статус
108;Другие болезни органов дыхания
109;Болезни полости рта, зубов
110;Болезни желудка и 12 п. кишки
111;Прободная  язва желудка и 12п. кишки
112;Острый аппендицит
113;Ущемленные  грыжи
114;Непроходимость кишечника
115;Болезни желчного пузыря и желчных путей
116;Болезни поджелудочной железы
117;Желудочно-кишечные кровотечения
118;Перитонит
119;Тромбозы мезентериальных сосудов
120;Другие болезни органов пищеварения
121;Болезни кожи и подкожной клетчатки
122;Болезни позвоночника
123;Прочие болезни костно-мышечной системы
124;Нефриты и нефрозы
125;Инфек. почек и др. бол. мочевыд. системы
126;Камни почек и мочеточников
127;Бол. женских пол. орган., молочной железы
128;Маточное кровотечение
129;Внематочная беременность
130;Аборт
131;Осложнения беременности, родов
132;Роды нормальные
133;Родовые травмы, инфекции  новорожденных
134;Врожденные пороки развития
135;Переломы костей черепа
136;Перелом костей туловища и позвоночника
137;Травмы и переломы костей конечностей
138;ЗЧМТ
139;Огнестр. ранения с повреждением костей
140;Огнестр. ранения с поврежд. вн. органов 
141;Травма вн.орг. грудн. брюшн. пол., таза
142;Раны головы, шеи, туловища и конечностей
143;Поверхн. травмы , раны и ушибы м/тканей
144;Разможжения, синдром длит. раздавливания 
145;Ожоги термические и химические
146;Воздействие высоких температур без ожогов
147;Воздействие низких температур
148;Утопление
149;Асфиксия и странгуляция
150;Изнасилование
151;Отравления лекарственными средствами
152;Токсич. воздействие алкоголя и его суррог.
153;Токсическое действие прижигающих веществ
154;Токсическое действие окиси углерода
155;Токсическое воздействие др. веществ
156;Аллергические реакции 
157;Алкогольное опьянение легкой, средней ст.
158;Другие необозначенные диагнозы и состояния
159;Практически здоров на момент осмотра
160;Биол. смерть от насильственной прич.
161;Биол. смерть от НЕнасильствен. прич.
162;Диагноз не выставлен
200;Без осложнений
201;Шок травматический
202;Шок кардиогенный 
203;Шок ожоговый
204;Шок инфекционно-токсический 
205;Шок  анафилактический 
206;Другие виды шока
207;Острая дыхательная недостаточность
208;Острая почечная недостаточность
209;Острая сосудистая недостаточность
210;О. левожелудочковая недостаточность
211;О. нарушение легочного кровообращения
212;О. нарушение мозгового кровообращения
213;Отек легких не кардиогенный 
214;Обморок
215;Сопор
216;Кома
217;Гипертоническая энцефалопатия
218;Отек головного мозга
219;Судорожный синдром на момент осмотра
220;Эклампсия
221;Остановка кровообращения
222;Острое нарушение ритма
223;Брадиаритмия
224;Синдром МЭС
225;Разрыв миокарда, тампонада сердца
226;Реперфузионный  синдром 
227;Расслаивающая аневризма аорты
228;Носовое кровотечение
229;Желудочно-кишечное кровотечение
230;Легочное  кровотечение 
231;Острая кровопотеря
232;Гипертермия 
233;Токсикоз
234;Эксикоз
235;Перитонит
236;Стеноз гортани
237;Острая задержка мочи
238;Психомоторное возбуждение 
239;Суицидальный настрой , суицид
240;Конс. психобриг. у сомат.больных
241;Артериальная гипотензия
242;Др.неблагопр. р-ции на терапию СП
